rating_text,metric,cost
Average,median_cost,45.0
Excellent,median_cost,60.0
Good,median_cost,50.0
Poor,median_cost,50.0
Very Good,median_cost,60.0
Average,q3_cost,60.0
Excellent,q3_cost,120.0
Good,q3_cost,70.0
Poor,q3_cost,70.0
Very Good,q3_cost,80.0
